…
[Api
documentation](https://docs.intrinio.com/documentation/api_v2/getting_started)
documentation.

Usage Example
-------------

    library(intrinoR)
    useSandbox()
    # useProduction()

    res <- getSecurityStockPrices("AAPL", opts = list(start_date = "2019-01-01"))
    res

    ## # A tibble: 130 x 14
    ##    symbol date  intraperiod frequency  open  high   low close volume
    ##    <chr>  <chr> <lgl>       <chr>     <dbl> <dbl> <dbl> <dbl>  <dbl>
    ##  1 AAPL   2019… FALSE       daily      199.  202.  199.  201. 2.06e7
    ##  2 AAPL   2019… FALSE       daily      201.  201.  198.  200. 2.53e7
    ##  3 AAPL   2019… FALSE       daily      203.  205.  203.  204. 1.73e7
    ##  4 AAPL   2019… FALSE       daily      203.  204.  203.  204. 1.14e7
    ##  5 AAPL   2019… FALSE       daily      201.  203.  201.  203. 1.69e7
    ##  6 AAPL   2019… FALSE       daily      203.  204.  201.  202. 2.73e7
    ##  7 AAPL   2019… FALSE       daily      199.  199.  197.  198. 3.11e7
    ##  8 AAPL   2019… FALSE       daily      200.  202.  200.  200. 2.09e7
    ##  9 AAPL   2019… FALSE       daily      198.  201.  197.  200. 2.61e7
    ## 10 AAPL   2019… FALSE       daily      198.  199.  195.  196. 2.11e7
    ## # … with 120 more rows, and 5 more variables: adj_open <dbl>,
    ## #   adj_high <dbl>, adj_low <dbl>, adj_close <dbl>, adj_volume <dbl>
…
